module mux-mongo-api

go 1.18

require (
	github.com/go-playground/locales v0.14.0 // indirect
	github.com/go-playground/universal-translator v0.18.0 // indirect
	github.com/go-playground/validator/v10 v10.11.0 // indirect
	github.com/go-stack/stack v1.8.1 // indirect
	github.com/golang/snappy v0.0.4 // indirect
	github.com/gorilla/mux v1.8.0 // indirect
	github.com/joho/godotenv v1.4.0 // indirect
	github.com/klauspost/compress v1.15.7 // indirect
	github.com/leodido/go-urn v1.2.1 // indirect
	github.com/pkg/errors v0.9.1 // indirect
	github.com/xdg-go/pbkdf2 v1.0.0 // indirect
	github.com/xdg-go/scram v1.1.1 // indirect
	github.com/xdg-go/stringprep v1.0.3 // indirect
	github.com/youmark/pkcs8 v0.0.0-20201027041543-1326539a0a0a // indirect
	go.mongodb.org/mongo-driver v1.9.1 // indirect
	golang.org/x/crypto v0.0.0-20220622213112-05595931fe9d // indirect
	golang.org/x/sync v0.0.0-20220601150217-0de741cfad7f // indirect
	golang.org/x/sys v0.0.0-20220708085239-5a0f0661e09d // indirect
	golang.org/x/text v0.3.7 // indirect
)
